// EVENT 0013
Name "Skill: Divine Reading"

ChangeVariable(11,11,0,2,1,100)
If(1,11,0,20,2)
 ShowMessageFace("iriasu_fc1",0,0,2,1)
 ShowMessage("\\n<Ilias>I answer your call and shall judge those who defy me. The impure shall suffer the wrath of their Goddess...")
 355("interrupt_skill(3258)")
 EndEventProcessing()
 0()
EndIf()
If(1,11,0,40,2)
 ShowMessageFace("iriasu_fc1",0,0,2,2)
 ShowMessage("\\n<Ilias>You summon me over such a trifling matter? You're the one who must accept my judgment...")
 355("interrupt_skill(3259)")
 EndEventProcessing()
 0()
EndIf()
If(1,11,0,50,2)
 ShowMessageFace("iriasu_fc1",0,0,2,3)
 ShowMessage("\\n<Ilias>Your bodies appear weak.\nI shall heal you all...")
 355("interrupt_skill(3260)")
 EndEventProcessing()
 0()
EndIf()
If(1,11,0,60,2)
 ShowMessageFace("iriasu_fc1",0,0,2,4)
 ShowMessage("\\n<Ilias>You look extremely tired.\nWith my strength, I shall restore your health and magic...")
 355("interrupt_skill(3261)")
 EndEventProcessing()
 0()
EndIf()
If(1,11,0,70,2)
 ShowMessageFace("iriasu_fc1",0,0,2,5)
 ShowMessage("\\n<Ilias>I cannot approve of you calling me whenever you are in trouble.\nDo you not think you're making a mistake thinking you can call on me to solve all your problems?")
 ShowMessageFace("iriasu_fc1",0,0,2,6)
 ShowMessage("\\n<Ilias>I am all-knowing and almighty, of course... But you must not become reliant on my power.")
 ShowMessageFace("iriasu_fc1",0,0,2,7)
 ShowMessage("\\n<Ilias>A true hero should exhaust his other options before depending on divine intervention.")
 ShowMessageFace("iriasu_fc1",0,0,2,8)
 ShowMessage("\\n<Ilias>...do you understand?\nThen go, and continue to faithfully serve me.")
 ShowMessageFace("",0,0,2,9)
 ShowMessage("The Goddess Ilias preached to us...")
 EndEventProcessing()
 0()
EndIf()
If(1,11,0,80,2)
 ShowMessageFace("iriasu_fc2",0,0,2,10)
 ShowMessage("\\n<Ilias>Yes, let's go with that plan, and--")
 ShowMessageFace("iriasu_fc1",0,0,2,11)
 ShowMessage("\\n<Ilias>...oh? I am a bit busy at the moment. Perhaps later.")
 ShowMessageFace("",0,0,2,12)
 ShowMessage("The Goddess Ilias did not offer any help...")
 EndEventProcessing()
 0()
EndIf()
If(1,11,0,89,2)
 ShowMessageFace("iriasu_fc1",0,0,2,13)
 ShowMessage("\\n<Ilias>Are you short of funds?\nThis should help ease your burden...")
 ChangeVariable(10,10,0,1,108)
 ChangeVariable(10,10,3,0,50)
 125(0,1,10)
 250(bytes(0x04,0x08,0x6f,0x3a,0x0c,0x52,0x50,0x47,0x3a,0x3a,0x53,0x45,0x08,0x3a,0x0a,0x40,0x6e,0x61,0x6d,0x65,0x49,0x22,0x0a,0x49,0x74,0x65,0x6d,0x31,0x06,0x3a,0x06,0x45,0x54,0x3a,0x0b,0x40,0x70,0x69,0x74,0x63,0x68,0x69,0x69,0x3a,0x0c,0x40,0x76,0x6f,0x6c,0x75,0x6d,0x65,0x69,0x55))
 ShowMessageFace("",0,0,2,14)
 ShowMessage("Ilias blessed us with \\V[10]G!")
 EndEventProcessing()
 0()
EndIf()
If(1,11,0,97,2)
 ShowMessageFace("iriasu_fc2",5,0,2,15)
 ShowMessage("\\n<Ilias>...I am busy right now. Take this and get lost.")
 ChangeInventory_Item(1,0,0,1)
 250(bytes(0x04,0x08,0x6f,0x3a,0x0c,0x52,0x50,0x47,0x3a,0x3a,0x53,0x45,0x08,0x3a,0x0a,0x40,0x6e,0x61,0x6d,0x65,0x49,0x22,0x0a,0x49,0x74,0x65,0x6d,0x31,0x06,0x3a,0x06,0x45,0x54,0x3a,0x0b,0x40,0x70,0x69,0x74,0x63,0x68,0x69,0x69,0x3a,0x0c,0x40,0x76,0x6f,0x6c,0x75,0x6d,0x65,0x69,0x55))
 ShowMessageFace("",0,0,2,16)
 ShowMessage("Ilias blessed us with an herb!")
 EndEventProcessing()
 0()
EndIf()
If(1,11,0,100,2)
 ShowMessageFace("iriasu_fc2",5,0,2,17)
 ShowMessage("\\n<Ilias>These are useful to you, are they not? Continue to serve me...")
 ChangeInventory_Item(32,0,0,1)
 250(bytes(0x04,0x08,0x6f,0x3a,0x0c,0x52,0x50,0x47,0x3a,0x3a,0x53,0x45,0x08,0x3a,0x0a,0x40,0x6e,0x61,0x6d,0x65,0x49,0x22,0x0a,0x49,0x74,0x65,0x6d,0x31,0x06,0x3a,0x06,0x45,0x54,0x3a,0x0b,0x40,0x70,0x69,0x74,0x63,0x68,0x69,0x69,0x3a,0x0c,0x40,0x76,0x6f,0x6c,0x75,0x6d,0x65,0x69,0x55))
 ShowMessageFace("",0,0,2,18)
 ShowMessage("Ilias blessed us with a small medal!")
 EndEventProcessing()
 0()
EndIf()
0()
