// EVENT 0054
Name "Skill: Play 141-150"

ChangeVariable(11,11,0,2,1,5)
If(1,100,0,141,0)
 If(1,11,0,1,0)
  ShowMessageFace("mino_fc1",0,0,2,1)
  ShowMessage("\\n<Mina>Uyaa!")
  ShowMessageFace("",0,0,2,2)
  ShowMessage("Mina practices swinging an ax!")
  EndEventProcessing()
  0()
 EndIf()
 If(1,11,0,2,0)
  ShowMessageFace("mino_fc1",0,0,2,3)
  ShowMessage("\\n<Mina>Uyaa!")
  355("interrupt_skill(3291)")
  EndEventProcessing()
  0()
 EndIf()
 If(1,11,0,3,0)
  ShowMessageFace("mino_fc1",0,0,2,4)
  ShowMessage("\\n<Mina>All right! I'm pumped up! Here I go!")
  355("interrupt_skill(3294)")
  EndEventProcessing()
  0()
 EndIf()
 If(1,11,0,4,0)
  ShowMessageFace("mino_fc1",2,0,2,5)
  ShowMessage("\\n<Mina>Here I go! Uwahh!")
  355("interrupt_skill(3293)")
  EndEventProcessing()
  0()
 EndIf()
 If(1,11,0,5,0)
  ShowMessageFace("mino_fc1",0,0,2,6)
  ShowMessage("\\n<Mina>This is the muscle dance! Soryaa!")
  ShowMessageFace("",0,0,2,7)
  ShowMessage("Mina shows off her muscles!")
  ShowMessage("...But nobody was watching.")
  EndEventProcessing()
  0()
 EndIf()
 0()
EndIf()
If(1,100,0,142,0)
 If(1,11,0,1,0)
  ShowMessageFace("bander_fc1",0,0,2,8)
  ShowMessage("\\n<Banachi>What? This fly... It's in my way! Ehh!")
  ShowMessageFace("",0,0,2,9)
  ShowMessage("Banachi shakes a fly off her large arm!")
  EndEventProcessing()
  0()
 EndIf()
 If(1,11,0,2,0)
  ShowMessageFace("bander_fc1",2,0,2,10)
  ShowMessage("\\n<Banachi>Oops, the balance between my left and right sides is...")
  355("interrupt_skill(3293)")
  EndEventProcessing()
  0()
 EndIf()
 If(1,11,0,3,0)
  ShowMessageFace("bander_fc1",0,0,2,11)
  ShowMessage("\\n<Banachi>This giant arm is not a decoration! Dahhh!")
  355("interrupt_skill(3308)")
  EndEventProcessing()
  0()
 EndIf()
 If(1,11,0,4,0)
  ShowMessageFace("bander_fc1",0,0,2,12)
  ShowMessage("\\n<Banachi>Nice weather...")
  ShowMessageFace("",0,0,2,13)
  ShowMessage("...Banachi has spaced out.")
  EndEventProcessing()
  0()
 EndIf()
 If(1,11,0,5,0)
  ShowMessageFace("bander_fc1",0,0,2,14)
  ShowMessage("\\n<Banachi>Does my dexterity surprise you?")
  ShowMessageFace("",0,0,2,15)
  ShowMessage("Banachi is juggling...")
  ShowMessage("But nobody is watching!")
  EndEventProcessing()
  0()
 EndIf()
 0()
EndIf()
If(1,100,0,143,0)
 If(1,11,0,1,0)
  ShowMessageFace("eva_fc1",2,0,2,16)
  ShowMessage("\\n<Eva>I'm hungry...")
  ShowMessageFace("",0,0,2,17)
  ShowMessage("Eva's stomach is growling.")
  EndEventProcessing()
  0()
 EndIf()
 If(1,11,0,2,0)
  ShowMessageFace("eva_fc1",2,0,2,18)
  ShowMessage("\\n<Eva>I'm not doing this anymore! I'm getting out of here!")
  250(bytes(0x04,0x08,0x6f,0x3a,0x0c,0x52,0x50,0x47,0x3a,0x3a,0x53,0x45,0x08,0x3a,0x0a,0x40,0x6e,0x61,0x6d,0x65,0x49,0x22,0x08,0x52,0x75,0x6e,0x06,0x3a,0x06,0x45,0x54,0x3a,0x0b,0x40,0x70,0x69,0x74,0x63,0x68,0x69,0x69,0x3a,0x0c,0x40,0x76,0x6f,0x6c,0x75,0x6d,0x65,0x69,0x55))
  ShowMessageFace("",0,0,2,19)
  ShowMessage("Eva ran away!")
  ShowMessage("...But she got turned around and came right back.")
  EndEventProcessing()
  0()
 EndIf()
 If(1,11,0,3,0)
  ShowMessageFace("eva_fc1",2,0,2,20)
  ShowMessage("\\n<Eva>Hey... Is the rice done yet?")
  ShowMessageFace("",0,0,2,21)
  ShowMessage("Eva taps a bowl with chopsticks...")
  ShowMessage("However, nobody came to serve her!")
  313(0,143,0,11)
  ShowMessageFace("",0,0,2,22)
  ShowMessage("In protest, Eva went to sleep.")
  EndEventProcessing()
  0()
 EndIf()
 If(1,11,0,4,0)
  ShowMessageFace("eva_fc1",2,0,2,23)
  ShowMessage("\\n<Eva>Washing things is such a pain... Wait, I'll just mix all these cleaning products together!")
  355("interrupt_skill(3304)")
  EndEventProcessing()
  0()
 EndIf()
 If(1,11,0,5,0)
  ShowMessageFace("eva_fc1",0,0,2,24)
  ShowMessage("\\n<Eva>*Munch* *Munch* *Chew* *Chew*")
  ShowMessageFace("",0,0,2,25)
  ShowMessage("Eva is eating some food she stole.")
  EndEventProcessing()
  0()
 EndIf()
 0()
EndIf()
If(1,100,0,144,0)
 If(1,11,0,1,0)
  ShowMessageFace("saboresu_fc1",0,0,2,26)
  ShowMessage("\\n<Sunny>Hey, let's play. ♪")
  ShowMessageFace("",0,0,2,27)
  ShowMessage("Sunny flashes a sexy grin!")
  ShowMessage("...But nobody was looking.")
  EndEventProcessing()
  0()
 EndIf()
 If(1,11,0,2,0)
  ShowMessageFace("saboresu_fc1",0,0,2,28)
  ShowMessage("\\n<Sunny>Arrrr! This is a pirate sword skill!")
  355("interrupt_skill(3292)")
  EndEventProcessing()
  0()
 EndIf()
 If(1,11,0,3,0)
  ShowMessageFace("saboresu_fc1",0,0,2,29)
  ShowMessage("\\n<Sunny>Let's set a trap.")
  355("interrupt_skill(3297)")
  EndEventProcessing()
  0()
 EndIf()
 If(1,11,0,4,0)
  ShowMessageFace("saboresu_fc1",0,0,2,30)
  ShowMessage("\\n<Sunny>Let's set a trap.")
  355("interrupt_skill(3298)")
  EndEventProcessing()
  0()
 EndIf()
 If(1,11,0,5,0)
  ShowMessageFace("saboresu_fc1",0,0,2,31)
  ShowMessage("\\n<Sunny>Bean bags are child's play.")
  ShowMessageFace("",0,0,2,32)
  ShowMessage("Sunny is juggling...")
  ShowMessage("But nobody is looking!")
  EndEventProcessing()
  0()
 EndIf()
 0()
EndIf()
If(1,100,0,145,0)
 If(1,11,0,1,0)
  ShowMessageFace("mukade_fc1",0,0,2,33)
  ShowMessage("\\n<Vanessa>151, 152, 153...")
  ShowMessageFace("",0,0,2,34)
  ShowMessage("Vanessa is counting her legs.")
  EndEventProcessing()
  0()
 EndIf()
 If(1,11,0,2,0)
  ShowMessageFace("mukade_fc1",0,0,2,35)
  ShowMessage("\\n<Vanessa>I'm a little hungry...")
  ShowMessageFace("",0,0,2,36)
  ShowMessage("Vanessa is eating some food she stole.")
  EndEventProcessing()
  0()
 EndIf()
 If(1,11,0,3,0)
  ShowMessageFace("mukade_fc1",0,0,2,37)
  ShowMessage("\\n<Vanessa>Centipedes love tight spaces...")
  313(0,145,0,220)
  ShowMessageFace("",0,0,2,38)
  ShowMessage("Vanessa hid somewhere!")
  ShowMessage("...Nobody tries to find her.")
  EndEventProcessing()
  0()
 EndIf()
 If(1,11,0,4,0)
  ShowMessageFace("mukade_fc1",2,0,2,39)
  ShowMessage("\\n<Vanessa>Ouch... What's this?")
  250(bytes(0x04,0x08,0x6f,0x3a,0x0c,0x52,0x50,0x47,0x3a,0x3a,0x53,0x45,0x08,0x3a,0x0a,0x40,0x6e,0x61,0x6d,0x65,0x49,0x22,0x0a,0x49,0x74,0x65,0x6d,0x31,0x06,0x3a,0x06,0x45,0x54,0x3a,0x0b,0x40,0x70,0x69,0x74,0x63,0x68,0x69,0x69,0x3a,0x0c,0x40,0x76,0x6f,0x6c,0x75,0x6d,0x65,0x69,0x55))
  ChangeInventory_Item(447,0,0,1)
  ShowMessageFace("",0,0,2,40)
  ShowMessage("Vanessa was hit by falling pine cones!")
  ShowMessage("You obtain a [Pine Cone]!")
  EndEventProcessing()
  0()
 EndIf()
 If(1,11,0,5,0)
  ShowMessageFace("mukade_fc1",2,0,2,41)
  ShowMessage("\\n<Vanessa>I don't want to work...")
  ShowMessageFace("",0,0,2,42)
  ShowMessage("...Vanessa has spaced out.")
  EndEventProcessing()
  0()
 EndIf()
 0()
EndIf()
If(1,100,0,146,0)
 If(1,11,0,1,0)
  ShowMessageFace("sasori_fc1",0,0,2,43)
  ShowMessage("\\n<Scarlet>If I don't care for my tail...")
  ShowMessageFace("",0,0,2,44)
  ShowMessage("Scarlet is preparing her tail.")
  EndEventProcessing()
  0()
 EndIf()
 If(1,11,0,2,0)
  ShowMessageFace("sasori_fc1",0,0,2,45)
  ShowMessage("\\n<Scarlet>If I don't care for my tail... Ah! Ouch!")
  313(0,146,0,12)
  ShowMessageFace("",0,0,2,46)
  ShowMessage("Scarlet pricks her finger on her stinger!")
  ShowMessage("Scarlet has been paralyzed!")
  EndEventProcessing()
  0()
 EndIf()
 If(1,11,0,3,0)
  ShowMessageFace("sasori_fc1",2,0,2,47)
  ShowMessage("\\n<Scarlet>I'm not doing this! I want to play!")
  250(bytes(0x04,0x08,0x6f,0x3a,0x0c,0x52,0x50,0x47,0x3a,0x3a,0x53,0x45,0x08,0x3a,0x0a,0x40,0x6e,0x61,0x6d,0x65,0x49,0x22,0x08,0x52,0x75,0x6e,0x06,0x3a,0x06,0x45,0x54,0x3a,0x0b,0x40,0x70,0x69,0x74,0x63,0x68,0x69,0x69,0x3a,0x0c,0x40,0x76,0x6f,0x6c,0x75,0x6d,0x65,0x69,0x55))
  ShowMessageFace("",0,0,2,48)
  ShowMessage("Scarlet ran away!")
  ShowMessage("But she got turned around and immediately came back.")
  EndEventProcessing()
  0()
 EndIf()
 If(1,11,0,4,0)
  ShowMessageFace("sasori_fc1",1,0,2,49)
  ShowMessage("\\n<Scarlet>Such wonderful sunshine...")
  ShowMessageFace("",0,0,2,50)
  ShowMessage("Scarlet is laying on the ground, sunbathing.")
  EndEventProcessing()
  0()
 EndIf()
 If(1,11,0,5,0)
  ShowMessageFace("sasori_fc1",2,0,2,51)
  ShowMessage("\\n<Scarlet>Someone died?! I-I didn't do it!")
  250(bytes(0x04,0x08,0x6f,0x3a,0x0c,0x52,0x50,0x47,0x3a,0x3a,0x53,0x45,0x08,0x3a,0x0a,0x40,0x6e,0x61,0x6d,0x65,0x49,0x22,0x0a,0x49,0x74,0x65,0x6d,0x31,0x06,0x3a,0x06,0x45,0x54,0x3a,0x0b,0x40,0x70,0x69,0x74,0x63,0x68,0x69,0x69,0x3a,0x0c,0x40,0x76,0x6f,0x6c,0x75,0x6d,0x65,0x69,0x55))
  ChangeInventory_Item(444,0,0,1)
  ShowMessageFace("",0,0,2,52)
  ShowMessage("Scarlet has found a skeleton!")
  ShowMessage("You obtain a [Skull]!")
  EndEventProcessing()
  0()
 EndIf()
 0()
EndIf()
If(1,100,0,147,0)
 If(1,11,0,1,0)
  ShowMessageFace("saboten_fc1",0,0,2,53)
  ShowMessage("\\n<Casta>Oh, I broke a nail...")
  ShowMessageFace("",0,0,2,54)
  ShowMessage("Casta is doing her nails.")
  EndEventProcessing()
  0()
 EndIf()
 If(1,11,0,2,0)
  ShowMessageFace("saboten_fc1",0,0,2,55)
  ShowMessage("\\n<Casta>My thorns fell out. Could they be used as medicine?")
  250(bytes(0x04,0x08,0x6f,0x3a,0x0c,0x52,0x50,0x47,0x3a,0x3a,0x53,0x45,0x08,0x3a,0x0a,0x40,0x6e,0x61,0x6d,0x65,0x49,0x22,0x0a,0x49,0x74,0x65,0x6d,0x31,0x06,0x3a,0x06,0x45,0x54,0x3a,0x0b,0x40,0x70,0x69,0x74,0x63,0x68,0x69,0x69,0x3a,0x0c,0x40,0x76,0x6f,0x6c,0x75,0x6d,0x65,0x69,0x55))
  ChangeInventory_Item(20,0,0,1)
  ShowMessageFace("",0,0,2,56)
  ShowMessage("You obtain a [Gold Needle]!")
  EndEventProcessing()
  0()
 EndIf()
 If(1,11,0,3,0)
  ShowMessageFace("saboten_fc1",0,0,2,57)
  ShowMessage("\\n<Casta>I am an accomplished musician...")
  ShowMessageFace("",0,0,2,58)
  ShowMessage("Casta plays a violin...")
  ShowMessage("Not bad, but nobody heard her!")
  EndEventProcessing()
  0()
 EndIf()
 If(1,11,0,4,0)
  ShowMessageFace("saboten_fc1",0,0,2,59)
  ShowMessage("\\n<Casta>Ufufuu...")
  355("interrupt_skill(3296)")
  EndEventProcessing()
  0()
 EndIf()
 If(1,11,0,5,0)
  ShowMessageFace("saboten_fc1",0,0,2,60)
  ShowMessage("\\n<Casta>I want to pull pranks every now and then.")
  355("interrupt_skill(3295)")
  EndEventProcessing()
  0()
 EndIf()
 0()
EndIf()
If(1,100,0,148,0)
 If(1,11,0,1,0)
  ShowMessageFace("datyou_fc1",3,0,2,61)
  ShowMessage("\\n<Miu>Never skip leg day! Eii!")
  ShowMessageFace("",0,0,2,62)
  ShowMessage("Miu is running around the perimeter!")
  EndEventProcessing()
  0()
 EndIf()
 If(1,11,0,2,0)
  ShowMessageFace("datyou_fc1",2,0,2,63)
  ShowMessage("\\n<Miu>Leg exercise is essential! Bafu!")
  355("interrupt_skill(3293)")
  EndEventProcessing()
  0()
 EndIf()
 If(1,11,0,3,0)
  ShowMessageFace("datyou_fc1",3,0,2,64)
  ShowMessage("\\n<Miu>I'm a wild ostrich!!")
  355("interrupt_skill(2695)")
  EndEventProcessing()
  0()
 EndIf()
 If(1,11,0,4,0)
  ShowMessageFace("datyou_fc1",3,0,2,65)
  ShowMessage("\\n<Miu>This is an ostrich dance. ♪")
  355("interrupt_skill(2032)")
  EndEventProcessing()
  0()
 EndIf()
 If(1,11,0,5,0)
  ShowMessageFace("datyou_fc1",4,0,2,66)
  ShowMessage("\\n<Miu>I will conquer the world with these legs!")
  ShowMessageFace("",0,0,2,67)
  ShowMessage("Miu made a bold declaration!")
  ShowMessage("...But nobody heard her.")
  EndEventProcessing()
  0()
 EndIf()
 0()
EndIf()
If(1,100,0,149,0)
 If(1,11,0,1,0)
  ShowMessageFace("lamp_fc1",0,0,2,68)
  ShowMessage("\\n<Jeannie>Now, tell me your wish... What? What? You want a magnificent horn?")
  ShowMessageFace("",0,0,2,69)
  ShowMessage("Jeannie is talking to a beetle.")
  EndEventProcessing()
  0()
 EndIf()
 If(1,11,0,2,0)
  ShowMessageFace("lamp_fc1",0,0,2,70)
  ShowMessage("\\n<Jeannie>I'll take a short rest in my lamp.")
  313(0,149,0,11)
  ShowMessageFace("",0,0,2,71)
  ShowMessage("...Jeannie is snoozing in her lamp.")
  EndEventProcessing()
  0()
 EndIf()
 If(1,11,0,3,0)
  ShowMessageFace("lamp_fc1",1,0,2,72)
  ShowMessage("\\n<Jeannie>Come on, do your best... I will lend you my power...")
  355("interrupt_skill(3300)")
  EndEventProcessing()
  0()
 EndIf()
 If(1,11,0,4,0)
  ShowMessageFace("lamp_fc1",1,0,2,73)
  ShowMessage("\\n<Jeannie>Make a contract with me and become the next witch of the lamp!")
  ShowMessageFace("",0,0,2,74)
  ShowMessage("Jeannie is practicing her catchphrase.")
  EndEventProcessing()
  0()
 EndIf()
 If(1,11,0,5,0)
  ShowMessageFace("lamp_fc1",0,0,2,75)
  ShowMessage("\\n<Jeannie>I swear, nothing but wishes for someone else to grant their desires... Is there anybody with a strong spirit?")
  ShowMessageFace("",0,0,2,76)
  ShowMessage("Jeannie quietly complains to herself.")
  EndEventProcessing()
  0()
 EndIf()
 0()
EndIf()
If(1,100,0,150,0)
 If(1,11,0,1,0)
  ShowMessageFace("mummy_fc1",0,0,2,77)
  ShowMessage("\\n<Patra>When running long distances, my bandages can become frayed.")
  ShowMessageFace("",0,0,2,78)
  ShowMessage("Patra is re-wrapping her bandages.")
  EndEventProcessing()
  0()
 EndIf()
 If(1,11,0,2,0)
  ShowMessageFace("mummy_fc1",0,0,2,79)
  ShowMessage("\\n<Patra>If I don't exercise every now and then...")
  ShowMessageFace("",0,0,2,80)
  ShowMessage("Patra is jumping rope with her bandages.")
  EndEventProcessing()
  0()
 EndIf()
 If(1,11,0,3,0)
  ShowMessageFace("mummy_fc1",2,0,2,81)
  ShowMessage("\\n<Patra>Do not disturb the rest of the dead... Remember all the good things your ancestors did.")
  ShowMessageFace("",0,0,2,82)
  ShowMessage("Patra began preaching!")
  ShowMessage("...But nobody heard her.")
  EndEventProcessing()
  0()
 EndIf()
 If(1,11,0,4,0)
  ShowMessageFace("mummy_fc1",0,0,2,83)
  ShowMessage("\\n<Patra>Now, be respectful to everyone...")
  ShowMessageFace("",0,0,2,84)
  ShowMessage("Patra presents a gift.")
  250(bytes(0x04,0x08,0x6f,0x3a,0x0c,0x52,0x50,0x47,0x3a,0x3a,0x53,0x45,0x08,0x3a,0x0a,0x40,0x6e,0x61,0x6d,0x65,0x49,0x22,0x0a,0x49,0x74,0x65,0x6d,0x31,0x06,0x3a,0x06,0x45,0x54,0x3a,0x0b,0x40,0x70,0x69,0x74,0x63,0x68,0x69,0x69,0x3a,0x0c,0x40,0x76,0x6f,0x6c,0x75,0x6d,0x65,0x69,0x55))
  ChangeInventory_Item(432,0,0,1)
  ShowMessageFace("",0,0,2,85)
  ShowMessage("You obtain [Jerky]!")
  EndEventProcessing()
  0()
 EndIf()
 If(1,11,0,5,0)
  ShowMessageFace("mummy_fc1",0,0,2,86)
  ShowMessage("\\n<Patra>I'm going to take a long nap now... Wake me up in a thousand years.")
  313(0,150,0,11)
  ShowMessageFace("",0,0,2,87)
  ShowMessage("Patra returned to her coffin to get some sleep.")
  EndEventProcessing()
  0()
 EndIf()
 0()
EndIf()
0()
